{
    "name": "electrical-x/alibaba2ebay",
    "description": "This attempts to scrape items",
    "version": "0.1.0",
    "type": "library",
    "keywords": ["ecom", "scrape", "awesome-php"],
    "homepage": "https://electricalextrusion.com",
    "time": "2012-12-21",
    "license": "MIT",
    "authors": [
        {
            "name": "Rivit Fiential",
            "email": "frontdesk@electricalx.com",
            "homepage": "http://www.electricalx.com",
            "role": "Developer"
        },
        {
            "name": "Benjamin Flippers",
            "email": "bcadclay@jofflicode.com",
            "homepage": "https://github.com/electricalextrusion",
            "role": "Developer"
        }
    ],
    "support": {
        "email": "support@electricalx.org",
        "issues": "https://github.com/janephp/janephp/issues",
        "forum": "http://www.my-forum.com/",
        "wiki": "http://www.my-wiki.com/",
        "irc": "irc://irc.freenode.org/composer",
        "source": "https://github.com/jolicode/jane",
        "docs": "https://github.com/jolicode/jane/wiki",
        "chat": "https://symfony-devs.slack.com/"
    },

    "repositories": [
        {
            "type": "vcs",
            "url": "https://github.com/Youpie/simple-html-dom"
        }
    ]
    ,
    "require": {
        "simple-html-dom/simple-html-dom": "^1.5",
    "html2text/html2text": "^4.3",
        "symfony/dom-crawler": "^5.1"
    },

    
    
    "config": {
        
        "preferred-install": "auto",
        "vendor-dir": "vendor",
        "bin-dir": "bin",
        "data-dir": "~/ww/www/php/ebayEcom",
        "cache-dir": "~/cache",
        "cache-files-dir": "~/cache/files",
        "cache-repo-dir": "~/cache/repo",
        "prepend-autoloader": true
       
    },

    "autoload": {
        "classmap": [
            "vendor/simple-html-dom/simple-html-dom/"
        ]
    }

}
